<?xml version="1.0" encoding="utf-8"?>
<!-- Generator: Adobe Illustrator 19.1.0, SVG Export Plug-In . SVG Version: 6.00 Build 0)  -->
<svg version="1.1" id="レイヤー_1" xmlns:sketch="http://www.bohemiancoding.com/sketch/ns"
	 xmlns="http://www.w3.org/2000/svg" xmlns:xlink="http://www.w3.org/1999/xlink" x="0px" y="0px" viewBox="-243 245 24 24"
	 style="enable-background:new -243 245 24 24;" xml:space="preserve">
<style type="text/css">
	.st0{fill:none;stroke:#FFFFFF;stroke-miterlimit:10;}
</style>
<title></title>
<desc></desc>
<g id="miu">
	<g id="Artboard-1" transform="translate(-863.000000, -407.000000)">
		<g id="slice" transform="translate(215.000000, 119.000000)">
		</g>
		<path id="other-conversation-review-comment-bubble-talk-outline-stroke" class="st0" d="M633.5,659h-10c-2.5,0-2.5,2.5-2.5,2.5v6
			c0,0,0,2.5,2.5,2.5h0.5l1.8,1.7l1.7-1.7h6c2.5,0,2.5-2.5,2.5-2.5v-6C636,661.5,636,659,633.5,659L633.5,659z M640.5,656h-10
			c-2.5,0-2.5,2.5-2.5,2.5l1,0c0,0,0-1.5,1.5-1.5h10c1.5,0,1.5,1.5,1.5,1.5v6c0,0,0,1.5-1.5,1.5h-1.4l-1.1,1.5l-1.2-1.5h-0.4v1
			l1.5,1.7l1.5-1.7h1c2.5,0,2.5-2.5,2.5-2.5v-6C643,658.5,643,656,640.5,656L640.5,656z M633.5,660h-10c0,0-1.5,0-1.5,1.5v6
			c0,1.5,1.5,1.5,1.5,1.5h0.8l1.5,1.5l1.6-1.5h6.1c1.5,0,1.5-1.5,1.5-1.5v-6C635,661.5,635,660,633.5,660L633.5,660z"/>
	</g>
</g>
</svg>
